…
    ## Parsed with column specification:
    ## cols(
    ##   .default = col_double()
    ## )

    ## See spec(...) for full column specifications.

``` r
# You need to add between the quotation marks a full path to the required file on your computer.
Data
```

    ## # A tibble: 2,821 x 216
    ##      pidp   pid i_hidp i_pno i_hhorig i_memorig i_psu i_strata i_sampst i_ivfio
    ##     <dbl> <dbl>  <dbl> <dbl>    <dbl>     <dbl> <dbl>    <dbl>    <dbl>   <dbl>
    ##  1 6.80e7    -8 6.82e7     4        1         1  2084     2042        1      21
    ##  2 6.80e7    -8 6.82e7     3        1         1  2084     2042        1      21
    ##  3 6.80e7    -8 6.82e7     3        1         1  2084     2042        1      21
    ##  4 6.81e7    -8 6.83e7     4        1         1  2108     2054        1      21
    ##  5 6.81e7    -8 6.83e7     3        1         1  2108     2054        1      21
    ##  6 6.81e7    -8 6.83e7     3        1         1  2132     2066        1      21
    ##  7 6.81e7    -8 6.86e7     5        1         1  2276     2138        1      21
    ##  8 6.82e7    -8 6.88e7     4        1         1  2348     2174        1      21
    ##  9 6.82e7    -8 6.88e7     2        1         1  2372     2186        1      21
    ## 10 6.82e7    -8 6.88e7     5        1         1  2396     2198        1      21
    ## # … with 2,811 more rows, and 206 more variables: i_sex <dbl>, i_dvage <dbl>,
    ## #   i_ypdoby <dbl>, i_ypsex <dbl>, i_ypsocweb <dbl>, i_ypnetcht <dbl>,
    ## #   i_yptvvidhrs <dbl>, i_ypmobu <dbl>, i_ypsmartph <dbl>, i_ypnpal <dbl>,
    ## #   i_ypeatlivu <dbl>, i_ypfamsup <dbl>, i_ypupset <dbl>, i_yplate <dbl>,
    ## #   i_ypsibling <dbl>, i_ypsibhit <dbl>, i_ypsibsteal <dbl>,
    ## #   i_ypsibverab <dbl>, i_ypsibtease <dbl>, i_yphitsib <dbl>,
    ## #   i_ypstealsib <dbl>, i_ypverabsib <dbl>, i_ypteasesib <dbl>, i_ypargm <dbl>,
    ## #   i_ypargf <dbl>, i_yptlkm <dbl>, i_yptlkf <dbl>, i_ypstephas <dbl>,
    ## #   i_ypsteprel <dbl>, i_ypsdqa <dbl>, i_ypsdqb <dbl>, i_ypsdqc <dbl>,
…
